{
  "header": {
    "blocks": [
      "header-layout.desktop",
      "header-layout.mobile"
    ]
  },
  "header.full": {
    "blocks": [
      "header-layout.desktop",
      "header-layout.mobile"
    ]
  },
  "header-layout.desktop": {
    "children": [
      "flex-layout.row#1-desktop", //televentas
      "flex-layout.row#2-desktop", //top-menu
      "flex-layout.row#3-desktop", //navbar
      "flex-layout.row#4-desktop" //despachos
    ]
  },
  "flex-layout.row#1-desktop": {
    "children": [
      "telemarketing"
    ],
    "props": {
      "fullWidth": true
    }
  },
  "flex-layout.row#4-desktop": {
    "children": [
      "notification.bar#home"
    ],
    "props": {
      "fullWidth": "true"
    }
  },
  "notification.bar#home": {
    "props": {
      "content": "Despacho gratis a RM sobre $25.000 / Te faltan $25000 en tu carrito"
    }
  },
  "flex-layout.row#2-desktop": {
    "props": {
      "blockClass": "top-menu",
      "horizontalAlign": "center",
      "preventHorizontalStretch": true,
      "preventVerticalStretch": true,
      "fullWidth": true
    },
    "children": [
      "rich-text#topbar-left",
      "flex-layout.col#spacer",
      "vtex.menu@2.x:menu#websites"
    ]
  },
  "rich-text#topbar-left": {
    "props": {
      "text": "ESTAMOS TOMANDO TODAS LAS MEDIDAS SANITARIAS NECESARIAS PARA HACER DESPACHOS SEGUROS EN EL MENOR TIEMPO POSIBLE. ES POR ELLO QUE LAS ENTREGAS PODRÍAN DEMORAR ENTRE 7 A 10 DÍAS HÁBILES.",
      "blockClass": "topbar-left"
    }
  },
  "flex-layout.col#spacer": {
    "props": {
      "width": "grow"
    }
  },
  "flex-layout.row#3-desktop": {
    "props": {
      "blockClass": "navbar",
      "horizontalAlign": "center",
      "verticalAlign": "center",
      "preventHorizontalStretch": true,
      "preventVerticalStretch": true,
      "fullWidth": true
    },
    "children": [
      "flex-layout.col#logo-desktop",
      "flex-layout.col#spacer",
      "flex-layout.col#category-menu",
      "flex-layout.col#spacer",
      "search-bar",
      "flex-layout.col#spacer",
      "menu-item#orders",
      "menu-item#account",
      "minicart.v2"
    ]
  },
  "menu-item#orders": {
    "props": {
      "id": "menu-item-orders",
      "blockClass": "orders",
      "type": "custom",
      "iconId": null,
      "highlight": false,
      "iconProps": {
        "id": "hpa-order",
        "viewBox": "0 0 24 16"
      },
      "itemProps": {
        "type": "internal",
        "href": "/account#/orders",
        "noFollow": false
      }
    }
  },
  "menu-item#account": {
    "props": {
      "id": "menu-item-orders",
      "blockClass": "orders",
      "type": "custom",
      "iconId": null,
      "highlight": false,
      "iconProps": {
        "id": "hpa-login",
        "viewBox": "0 0 24 16"
      },
      "itemProps": {
        "type": "internal",
        "href": "/account",
        "noFollow": false
      }
    }
  },
  "minicart.v2": {
    "props": {
      "MinicartIcon": "icon-cart#minicart-icon"
    },
    "children": [
      "minicart-base-content"
    ]
  },
  "icon-cart#minicart-icon": {
    "props": {
      "size": 14
    }
  },
  "minicart-base-content": {
    "blocks": [
      "minicart-empty-state"
    ],
    "children": [
      "minicart-product-list",
      "flex-layout.col#despachos",
      "image#img-promo",
      "flex-layout.row#minicart-footer"
    ]
  },
  "image#img-promo": {
    "props": {
      "src": "https://i.ibb.co/KzT3VFv/banner-esmaltes-promo-kayser-04.png",
      "blockClass": "img-banner"
    }
  },
  "flex-layout.col#despachos": {
    "props": {
      "blockClass": "despacho-container"
    },
    "children": [
      "rich-text#despacho-rm",
      "rich-text#falta-rm",
      "rich-text#despacho-regiones",
      "rich-text#falta-regiones"
    ]
  },
  "flex-layout.row#minicart-footer": {
    "props": {
      "blockClass": "minicart-footer"
    },
    "children": [
      "flex-layout.col#minicart-footer"
    ]
  },
  "flex-layout.col#minicart-footer": {
    "children": [
      "minicart-bar",
      "minicart-summary",
      "minicart-checkout-button"
    ]
  },
  "rich-text#despacho-rm": {
    "props": {
      "text": "DESPACHO GRATIS A RM SOBRE $25.000",
      "blockClass": "despacho-rm"
    }
  },
  "rich-text#falta-rm": {
    "props": {
      "text": "Te faltan $17.162 en tu carrito",
      "blockClass": "falta-rm"
    }
  },
  "rich-text#despacho-regiones": {
    "props": {
      "text": "DESPACHO GRATIS OTRAS REGIONES SOBRE $45.000",
      "blockClass": "despacho-rm"
    }
  },
  "rich-text#falta-regiones": {
    "props": {
      "text": "Te faltan $17.162 en tu carrito",
      "blockClass": "falta-rm"
    }
  },
  "minicart-checkout-button": {
    "props": {
      "blockClass": "checkout-button"
    }
  },
  "minicart-product-list": {
    "blocks": [
      "product-list#minicart"
    ]
  },
  "product-list#minicart": {
    "blocks": [
      "product-list-content-mobile"
    ]
  },
  "minicart-summary": {
    "blocks": [
      "checkout-summary.compact#minicart"
    ]
  },
  "checkout-summary.compact#minicart": {
    "children": [
      "summary-totalizers#minicart"
    ],
    "props": {
      "totalizersToShow": [
        "Items",
        "Discounts"
      ]
    }
  },
  "summary-totalizers#minicart": {
    "props": {
      "showTotal": true,
      "showDeliveryTotal": false
    }
  },
  "minicart-empty-state": {
    "children": [
      "flex-layout.row#empty-state"
    ]
  },
  "flex-layout.row#empty-state": {
    "children": [
      "flex-layout.col#empty-state"
    ]
  },
  "flex-layout.col#empty-state": {
    "children": [
      "icon-cart#minicart-empty-state",
      "rich-text#minicart-default-empty-state"
    ],
    "props": {
      "horizontalAlign": "center",
      "verticalAlign": "middle",
      "rowGap": 5
    }
  },
  "icon-cart#minicart-empty-state": {
    "props": {
      "size": 64,
      "blockClass": "minicart-empty-state"
    }
  },
  "rich-text#minicart-default-empty-state": {
    "props": {
      "text": "Tu carro esta vacio."
    }
  },
  /*"minicart.v2":{
    "props": {
      "MinicartIcon": "icon-cart#minicart-icon"
    }
  },
  "icon-cart#minicart-icon": {
    "props": {
      "id": "hpa-cart",
      "size": 16,
      "viewBox": "0 0 24 16"
    }
  },*/
  "flex-layout.col#logo-desktop": {
    "props": {
      "verticalAlign": "middle"
    },
    "children": [
      "logo#desktop"
    ]
  },
  "flex-layout.col#category-menu": {
    "props": {
      "verticalAlign": "middle"
    },
    "children": [
      "vtex.menu@2.x:menu#category-menu"
    ]
  },
  "logo#desktop": {
    "props": {
      "title": "Logo",
      "href": "/",
      "url": "/arquivos/logo.svg",
      "width": "110"
    }
  },
  "header-layout.mobile": {
    "children": [
      "sticky-layout#1-mobile"
    ]
  },
  "sticky-layout#1-mobile": {
    "children": [
  
      "flex-layout.row#1-mobile",
      "flex-layout.row#4-mobile"
     
    ]
  },
  

  "flex-layout.row#1-mobile": {
    "children": [
      "drawer",
      "logo#mobile",
      "flex-layout.col#spacer",
      "menu-item#account-mobile",
      "minicart.v2#mobile"
    ],
    "props": {
      "blockClass": "navbar-mobile",
      "preventHorizontalStretch": true,
      "preserveLayoutOnMobile": true,
      "fullWidth": true
    }
  },
  "drawer": {
    "children": [
      "menu#drawer"
    ]
  },
  "menu-item#account-mobile": {
    "props": {
      "id": "menu-item-orders",
      "blockClass": "orders",
      "type": "custom",
      "iconId": null,
      "highlight": false,
      "iconProps": {
        "id": "hpa-login",
        "size": 20,
        "viewBox": "0 0 24 16"
      },
      "itemProps": {
        "type": "internal",
        "href": "/account",
        "noFollow": false
      }
    }
  },
  "minicart.v2#mobile": {
    "props": {
      "MinicartIcon": "icon-cart#minicart-icon-mobile"
    }
  },
  "icon-cart#minicart-icon-mobile": {
    "props": {
      "id": "hpa-cart",
      "size": 20,
      "viewBox": "0 0 24 16"
    }
  },
  "flex-layout.row#4-mobile": {
    "children": [
      "notification.bar#home-mobile"
    ],
    "props": {
      "fullWidth": "true"
    }
  },
  "notification.bar#home-mobile": {
    "props": {
      "content": "Despacho gratis a RM sobre $25.000 / Te faltan $25000 en tu carrito"
    }
  },
  "menu#drawer": {
    "children": [
      // "menu-item#category-apparel",
      // "menu-item#category-home",
      // "menu-item#more"
    ],
    "props": {
      "orientation": "vertical"
    }
  },
  "logo#mobile": {
    "props": {
      "title": "Logo Kayser",
      "href": "/",
      "url": "/arquivos/logo.svg",
      "width": "120"
    }
  }
}