{
  "vtex.menu@2.x:menu#websites": {
    "children": [
      "menu-item#seguimiento",
      "menu-item#quiero-promotora",
      "menu-item#soy-promotora",
      "menu-item#tiendas",
      "menu-item#faq",
      "menu-item#contacto"
    ]
  },
  "menu-item#seguimiento": {
    "props": {
      "id": "menu-item-seguimiento",
      "type": "custom",
      "iconId": null,
      "highlight": false,
      "itemProps": {
        "type": "internal",
        "href": "https://www.kaysershop.com/seguimiento-pedido",
        "noFollow": false,
        "tagTitle": "pedidos",
        "text": "Sigue tu Pedido"
      } 
    }
  },
  "menu-item#quiero-promotora": {
    "props": {
      "id": "menu-item-quieroserpromotora",
      "type": "custom",
      "iconId": null,
      "highlight": false,
      "itemProps": {
        "type": "internal",
        "href": "https://promotoras.kaysershop.com/sistema/403",
        "noFollow": false,
        "tagTitle": "quiero-promotora",
        "text": "Quiero ser Promotora"
      }
    }
  },
  "menu-item#soy-promotora": {
    "props": {
      "id": "menu-item-soypromotora",
      "type": "custom",
      "iconId": null,
      "highlight": false,
      "itemProps": {
        "type": "internal",
        "href": "https://promotoras.kaysershop.com/login?ReturnUrl=%2f_secure%2f",
        "noFollow": false,
        "tagTitle": "soypromotora",
        "text": "Ya soy Promotora"
      }
    }
  },
  "menu-item#tiendas": {
    "props": {
      "id": "menu-item-tiendas",
      "type": "custom",
      "iconId": null,
      "highlight": false,
      "itemProps": {
        "type": "internal",
        "href": "https://www.kaysershop.com/tiendas",
        "noFollow": false,
        "tagTitle": "tiendas",
        "text": "Tiendas"
      }
    }
  },
  "menu-item#faq": {
    "props": {
      "id": "menu-item-faq",
      "type": "custom",
      "iconId": null,
      "highlight": false,
      "itemProps": {
        "type": "internal",
        "href": "#",
        "noFollow": false,
        "tagTitle": "faq",
        "text": "Preguntas Frecuentes"
      }
    }
  },
  "menu-item#contacto": {
    "props": {
      "id": "menu-item-contacto",
      "type": "custom",
      "iconId": null,
      "highlight": false,
      "itemProps": {
        "type": "internal",
        "href": "https://www.kaysershop.com/servicio-al-cliente/contactanos",
        "noFollow": false,
        "tagTitle": "contacto",
        "text": "Contacto"
      }
    }
  },
  "vtex.menu@2.x:menu#institutional": {
    "children": [
      "menu-item#vtex-website"
    ]
  },
  "menu-item#vtex-website": {
    "props": {
      "id": "menu-item-vtex-website",
      "type": "custom",
      "iconId": null,
      "highlight": false,
      "itemProps": {
        "type": "external",
        "href": "http://vtex.com",
        "noFollow": false,
        "tagTitle": "visit vtex.com",
        "text": "texto"
      }
    }
  }
}
