{
  "store.home": {
    "blocks": [
      "list-context.image-list#carousel-main",
      /* You can make references to blocks defined in other files.
       * For example, `flex-layout.row#deals` is defined in the `deals.json` file. */
      "flex-layout.row#row-xxl",
      "flex-layout.row#mini-banners-1",
      "flex-layout.row#mini-banners-2",
      "flex-layout.row#banner-1",
      "flex-layout.row#shelf-homewear",
      "image#conoce-sensual",
      "flex-layout.row#shelf-recomendados",
      "flex-layout.row#dos-imagenes",
      "rich-text#shelf-title-recomendados",
      "flex-layout.row#shelf-recomendados",
      "flex-layout.row#como-comprar"
    ]
    
  },

  "list-context.image-list#carousel-main": {
    "children": ["slider-layout#carousel-images"],
    "props": {
      "height": 720,
      "images": [
        // {
        //   "image": "https://kayserltda.vteximg.com.br/arquivos/principal%201920x400_nuevos%20productos.png?v=637503973994230000",
        //   "mobileImage": "https://kayserltda.vteximg.com.br/arquivos/PPAL-kdays-sostenes-mobile.png?v=637581276073070000"
        // },
        // {
        //   "image": "https://kayserltda.vteximg.com.br/arquivos/kayser_homewear_desktop.png?v=637617049256530000",
        //   "mobileImage": "https://kayserltda.vteximg.com.br/arquivos/PPAL-kdays-sostenes-mobile.png?v=637581276073070000"
        // },
        {
          "image": "https://kayserltda.vteximg.com.br/arquivos/kayser_nt_packs_home_desktop.png?v=637374712654900000",
          "mobileImage": "https://kayserltda.vteximg.com.br/arquivos/PPAL-kdays-sostenes-mobile.png?v=637581276073070000"
        },
        {  //Entre nosotras
          "image": "https://kayserltda.vteximg.com.br/arquivos/LandingPageMujer_Principal_desktop.jpg?v=637505520673770000",
          "mobileImage": "https://kayserltda.vteximg.com.br/arquivos/LandingPageMujer_Principal_desktop.jpg?v=637505520673770000",
          "src": "https://www.google.com/" 
        }

      ]
    }
  },
  "slider-layout#carousel-images": {
    "props": {
      "itemsPerPage": {
        "desktop": 1,
        "tablet": 1,
        "phone": 1
      },
      "infinite": true,
      "showNavigationArrows": "desktopOnly",
      "blockClass": "carousel",
      "slideTransition": { 
        "speed": 0,
        "delay": 1000,
        "timing": "linear"
      },
      "autoplay": {
        "timeout": 5000
      },
      "showPaginationDots": "never"
    }
  },

"flex-layout.row#shelf-homewear": {
  "props":{
    "blockClass":"row-homewear"
  },
    "children": [
      "image#homewear",
      "list-context.product-list#productos-homewear"
    ]
  },
  "list-context.product-list#productos-homewear": {
    "blocks": ["product-summary.shelf"],
    "children": ["slider-layout#productos-homewear"],
    "props": {
      "orderBy": "OrderByTopSaleDESC",
      "blockClass":"productos-homewear"
    }
  },
  "slider-layout#productos-homewear": {
    "props": {
      "itemsPerPage": {
        "desktop": 3,
        "tablet": 3,
        "phone": 2
      },
      "infinite": true,
      "fullWidth": false,
      "blockClass": "shelf",
      "showNavigationArrows": "always",
      "showPaginationDots": "never"
    }
  },
  "image#homewear":{
    "props":{
      "src": "https://kayserltda.vteximg.com.br/arquivos/homewear_kayser_banner-carrusel.jpg?v=637624860586370000",
      "blockClass": "imagen-homewear",
      "link":{
        "url": "#"
      }
    }
  },

  "image#conoce-sensual": {
    "props": {
      "src": "https://kayserltda.vteximg.com.br/arquivos/Banner%20inferior1440x200_lovelust_desktop.png?v=637571437514630000",
      "blockClass":"imagen-conoce-sensual"

    }
  },
  "flex-layout.row#dos-imagenes":{
    "children":[
      "image#imagen1",
      "image#imagen2"
    ]
  },
  "image#imagen1":{
    "props":{
      "src": "https://kayserltda.vteximg.com.br/arquivos/nuevos_productos_900x480_desktop.png?v=637509054988930000",
      "blockClass": "imagen1",
      "link":{
        "url": "#"
      }
    }
  },
"image#imagen2":{
    "props":{
      "src": "https://kayserltda.vteximg.com.br/arquivos/Banner-simpsons-900x480-Desktop.png?v=637498691429070000",
      "blockClass": "imagen2",
      "link":{
        "url": "#"
      }
    }
  },
  "rich-text#shelf-title-recomendados": {
    "props": {
      "text": "## Productos Recomendados",
      "blockClass": "shelfTitle"
    }
  },

  "flex-layout.row#shelf-recomendados": {
    "children": ["list-context.product-list#productos-recomendados"]
  },
  "list-context.product-list#productos-recomendados": {
    "blocks": ["product-summary.shelf"],
    "children": ["slider-layout#productos-recomendados"],
    "props": {
      "orderBy": "OrderByTopSaleDESC"
    }
  },
  "slider-layout#productos-recomendados": {
    "props": {
      "itemsPerPage": {
        "desktop": 4,
        "tablet": 3,
        "phone": 2
      },
      "infinite": true,
      "fullWidth": false,
      "blockClass": "shelf",
      "showNavigationArrows": "always",
      "showPaginationDots": "never"
    }
  },

  "flex-layout.row#row-xxl":{
    "children": ["image#img-xxl", "flex-layout.row#shelf-xxl"],
    "props": {
      "marginTop": 7
    }
  },

  "image#img-xxl":{
    "props": {
      "src": "https://www.kaysershop.com/arquivos/colecci%C3%B3n%20XXL.png?v=637535880939170000"
    }
  },

  "flex-layout.row#shelf-xxl": {
    "children": ["list-context.product-list#productos-xxl"],
    "props":{ 
      "width": "78%",
      "blockClass": ["xxl-vitrina", "shelf"]
    }
  },
  "list-context.product-list#productos-xxl": {
    "blocks": ["product-summary.shelf"],
    "children": ["slider-layout#productos-xxl"],
    "props": {
      "orderBy": "OrderByTopSaleDESC"
    }
  },
  "slider-layout#productos-xxl": {
    "props": {
      "itemsPerPage": {
        "desktop": 4,
        "tablet": 3,
        "phone": 2
      },
      "infinite": true,
      "fullWidth": false,
      "blockClass": ["shelf-xxl", "shelf"],
      "showNavigationArrows": "always",
      "showPaginationDots": "never"
    }
  },

  "flex-layout.row#mini-banners-1":{
    "children": ["image#mini-banner-1", "image#mini-banner-2"],
    "props": {
      "marginTop": 7,
      "blockClass": "mini-banners"
    }
  },

  "image#mini-banner-1":{
    "props":{
      "src": "https://kayserltda.vteximg.com.br/arquivos/Banner-mujer-900x480-Desktop.png",
      "blockClass": "mini-banner-1",
      "link":{
        "url": "#"
      }
    }
  },

  "image#mini-banner-2":{
    "props":{
      "src": "https://www.kaysershop.com/arquivos/Banner-hombre-900x480-Desktop.png",
      "blockClass": "mini-banner-2",
      "link":{
        "url": "#"
      }
    }
  },


  "flex-layout.row#mini-banners-2":{
    "children": ["image#mini-banner-3", "image#mini-banner-4"],
    "props": {
      "marginTop": 7,
      "marginBottom": 7,
      "blockClass": "mini-banners"
    }
  },

  "image#mini-banner-3":{
    "props":{
      "src": "https://www.kaysershop.com/arquivos/Banner-teens-900x480-Desktop.png",
      "blockClass": "mini-banner-3",
      "link":{
        "url": "#"
      }
    }
  },

  "image#mini-banner-4":{
    "props":{
      "src": "https://www.kaysershop.com/arquivos/Banner-kids-900x480-Desktop.png",
      "blockClass": "mini-banner-4",
      "link":{
        "url": "#"
      }
    }
  },

  "flex-layout.row#banner-1":{
    "children": ["image#banner-1"],
    "props":{
      "marginTop": 7,
      "marginBottom": 7,
      "blockClass": "banner-home"
    }
  },

  "image#banner-1":{
    "props":{
      "src": "https://www.kaysershop.com/arquivos/kayser_packs1440x200_sinlogos.png?v=637396884761830000",
      "blockClass": "banner-home",
      "link":{
        "url": "#"
      }
    }
  },

  "flex-layout.row#como-comprar":{
    "children": ["modal-trigger#como-comprar"],
    "props": {
      "marginBottom": 8,
      "marginTop": 4
    }
  },
  "modal-trigger#como-comprar": {
    "children": [
      "image#como-comprar",
      "modal-layout#como-comprar"
    ]
  },
  "modal-layout#como-comprar": {
    "children": [
      "modal-header#como-comprar",
      "image#logo-kayser",
      "rich-text#como-comprar",
      "iframe#como-comprar"
    ],
    "props":{
      "blockClass": "modal-como-comprar"
    }
  },
  "modal-header#como-comprar":{
    "props": {
      "showCloseButton": true
    }
  },
  "rich-text#como-comprar": {
    "props": {
      "text": "## ¿Cómo comprar en Kaysershop.com?"
    }
  },
  "image#logo-kayser":{
    "props":{
      "src": "https://kayserltda.vteximg.com.br/arquivos/logo.png",
      "maxHeight": 45,
      "maxWidth": 105
    }
  },
  "iframe#como-comprar": {
    "props": {
      "src": "https://www.youtube.com/embed/3NOLO1j-_0Y",
      "width": "560",
      "height": "315"
    }
  },
  "image#como-comprar": {
    "props":{
      "src": "https://kayserltda.vteximg.com.br/arquivos/banner_kayser_comocomprar%201440_100_desktop.png?v=637338958745800000",
      "blockClass": "img-como-comprar"
    }
  }
}
